…
```r
# Read and check for duplicated rows in the "menage_2002" dataset
menage_2002 <- haven::read_sav(paste0(here::here(),"/output/output_data/menage_2002.sav"))
menage_2002 %>% janitor::get_dupes() 
```

```
## # A tibble: 209 × 64
##    id_dr      ID_MENAGE       RGPH  `filter_$` nb_indiv type_log nbr_piece_occup
##    <chr>      <chr>           <chr> <dbl+lbl>  <dbl+lb> <dbl+lb> <dbl+lbl>      
##  1 131181028O 131181028O48056 2002  NA         4 [Mais… 4 [4]    1 [1]          
##  2 131181028O 131181028O48056 2002  NA         4 [Mais… 4 [4]    1 [1]          
##  3 131181028O 131181028O48056 2002  NA         4 [Mais… 4 [4]    1 [1]          
##  4 131181028O 131181028O48056 2002  NA         4 [Mais… 4 [4]    1 [1]          
##  5 131181028O 131181028O48056 2002  NA         4 [Mais… 4 [4]    1 [1]          
##  6 131181028O 131181028O48056 2002  NA         4 [Mais… 4 [4]    1 [1]          
##  7 131181019O 131181019O12018 2002  NA         3 [Mais… 3 [3]    1 [1]          
##  8 131181019O 131181019O12018 2002  NA         3 [Mais… 3 [3]    1 [1]          
##  9 131181019O 131181019O12018 2002  NA         3 [Mais… 3 [3]    1 [1]          
## 10 131181019O 131181019O12018 2002  NA         3 [Mais… 3 [3]    1 [1]          
## # ℹ 199 more rows
## # ℹ 57 more variables: stat_occupation <dbl+lbl>, type_aisance <dbl+lbl>,
## #   approv_eau <dbl+lbl>, eclairage <dbl+lbl>, combustible_cuisine <dbl+lbl>,
## #   nature_mur <dbl+lbl>, nature_toit <dbl+lbl>, nature_sol <dbl+lbl>,
## #   radio <dbl+lbl>, televiseur <dbl+lbl>, video <dbl+lbl>,
## #   refri_conge <dbl+lbl>, telephone <dbl+lbl>, rechaud_cuis <dbl+lbl>,
## #   foyer_ameli <dbl+lbl>, climatisateur <dbl+lbl>, machine_coudre <dbl+lbl>, …
```
…
